{
  "type": "service_account",
  "project_id": "online-theater",
  "private_key_id": "34a226e1ec2d8a74a5e52c6dc9a871990e887ad0",
  "private_key": "-----BEGIN PRIVATE KEY-----\nMIIEvgIBADANBgkqhkiG9w0BAQEFAASCBKgwggSkAgEAAoIBAQDylJOZI8bQVP4c\nxPcYw66ANyMuLtu6QLWFu6ebhF4G2SA5CA3VpYSqFHhP3GYb5jAS0d8S7+uH3UdX\nwxtu0VnH52YPrwXJVDybTYLazHSbrcFfab49EqyD7NxQta17vLSpNUvBVQmnnAiv\nWOCx4IZv2yEfZ2zdn0fiPg1NlKVQPshH666wPAzBf+SFKT7MIyY4zBNFVZQPqkXH\n0cSMw/qZIkhHYhL5QHvB92hC9x1pcBMa53EnDLb8XNQuXNCU4Mx1xtkqbDm6nTm6\nj0mizAIY7Q+noO/9tNinrx99RKcAnBfUpo+BfbTXUfAGzmMY9wjZWrDBLVDKAbEi\n448oNv7DAgMBAAECggEALqiISTzZ6UlnxSXXd0JwJoY0dJYbulPm9k2VW/LWWQ/b\nREz5yD25ajNcvtOgKj6YwY3vj8do8K2NouJKvQJ0d+BYv6yE+ugCbka25BnOVgFS\nP+Vpa3rTht6As991+mZeA2vWYd3W6Q+4le2M7nnGse4ejVlJ1cjkvS39Rg5Qy8Gf\ny5YsYHlp1qUPCSz8Hqi8AGBfVXKZEFWGUjEEI/30tt763fNvSJ0JgkAo77vNqmrm\nmdjkj+7eLsTbQDiUngdRp9Cy/YpkLLs207GHZ5RP+XSsmwpHISM2dR+nANCwRMKS\nlTvpp6kBn7gQKQyEIHcNJwz/DlPlDtodAKaOlkK/VQKBgQD6iHb96SCmy/ChIdGx\niKSvEjNFLEIVHer00m14AOFqElwEaPli5kq730bB8D04mvjTfMnGXOBdCO0vsDd9\n0M/xOO8EqrFT5mJMtvF0bthVb7qLG+g/K6Vi67TzTLekOu8BYe2SUazyZDsN06KT\n2J1XpvsCbnUWfIMuqF5IPbmHlwKBgQD336+q3W4wqHr92L7dpGOnoqJbInhjhNnQ\n2Pkk5MtJZizb+0gZDvFHeFICAirPxcCIHUIKq484rsME4sxyLlooEpBEO2JG3wQs\nNMlcwB4MGIF3V0Gty9li5sFLusRpNbOZi0aaZOYbuLlIoljR7B3pU+FB/ZETOVWc\ncquNy/MHtQKBgQCBXdAb4rKSjoKNobn283keUcaZtHXXE6DMlJAkREghjqNnP5Fv\nKT1z76JI6LWkMhnEkw5Z2IGeaMqZMmQlGpsVk3GQtldk3HTr6heaKNaan1vzExEE\n9ZOsFcxVScsWCbx6uUeEo5ore+gmhp7Puy3cIgRBSCo710Wh5RzyLrVLtwKBgQCU\ny51bN3NHGExEh9EDogQEhHdrt8SHER/j4+ujfwidNg2lvDEqgbLLEWpBNGXYtb/+\ntXmIiDYAc8Az9aV+wV5zgblCjFdRbdzGYKWj3NvsrOVC64lMt/r2CMluGV6APbFj\ncZzfX8RWTcxD0tj4owHNqAGnqHxnCtregGOFSjHIpQKBgFx2JcO5C0iJUyxbZJm4\nq2jMPhcV+VeJsD6GDmF7YGTmpjcMiTHteF5iAZ5K9t3I1GVUK6aER1srwSGmc21D\nvSRTWhuc2xcZmnIgFxHYy3IjG6hHJkBeHRjRmIwO9kr/ONC9rowraVRQLgsKZOcn\n5Fj4LxfhRNPCslcl1T65ajlO\n-----END PRIVATE KEY-----\n",
  "client_email": "cloud-storage-uploader@online-theater.iam.gserviceaccount.com",
  "client_id": "117476188923663019569",
  "auth_uri": "https://accounts.google.com/o/oauth2/auth",
  "token_uri": "https://oauth2.googleapis.com/token",
  "auth_provider_x509_cert_url": "https://www.googleapis.com/oauth2/v1/certs",
  "client_x509_cert_url": "https://www.googleapis.com/robot/v1/metadata/x509/cloud-storage-uploader%40online-theater.iam.gserviceaccount.com"
}
